leaf-length,leaf-width,petal-length,petal-width,class
5.10,3.40,1.50,0.20,Iris-setosa
5.00,3.50,1.30,0.30,Iris-setosa
4.50,2.30,1.30,0.30,Iris-setosa
4.40,3.20,1.30,0.20,Iris-setosa
5.00,3.50,1.60,0.60,Iris-setosa
5.10,3.80,1.90,0.40,Iris-setosa
4.80,3.00,1.40,0.30,Iris-setosa
5.10,3.80,1.60,0.20,Iris-setosa
4.60,3.20,1.40,0.20,Iris-setosa
5.30,3.70,1.50,0.20,Iris-setosa
5.00,3.30,1.40,0.20,Iris-setosa
5.50,2.50,4.00,1.30,Iris-versicolor
5.50,2.60,4.40,1.20,Iris-versicolor
6.10,3.00,4.60,1.40,Iris-versicolor
5.80,2.60,4.00,1.20,Iris-versicolor
5.00,2.30,3.30,1.00,Iris-versicolor
5.60,2.70,4.20,1.30,Iris-versicolor
5.70,3.00,4.20,1.20,Iris-versicolor
5.70,2.90,4.20,1.30,Iris-versicolor
6.20,2.90,4.30,1.30,Iris-versicolor
5.10,2.50,3.00,1.10,Iris-versicolor
5.70,2.80,4.10,1.30,Iris-versicolor
6.90,3.10,5.40,2.10,Iris-virginica
6.70,3.10,5.60,2.40,Iris-virginica
6.90,3.10,5.10,2.30,Iris-virginica
5.80,2.70,5.10,1.90,Iris-virginica
6.80,3.20,5.90,2.30,Iris-virginica
6.70,3.30,5.70,2.50,Iris-virginica
6.70,3.00,5.20,2.30,Iris-virginica
6.30,2.50,5.00,1.90,Iris-virginica
6.50,3.00,5.20,2.00,Iris-virginica
6.20,3.40,5.40,2.30,Iris-virginica
5.90,3.00,5.10,1.80,Iris-virginica
